{
    "autoAdd": false,
    "autoAddMessage": "",
    "autoJoin": false,
    "autoJoinMessage": "",
    "autoJoinTicket": false,
    "autoRead": false,
    "autoRespon": false,
    "autoResponMessage": "",
    "changeGroupPicture": [],
    "changePictureProfile": false,
    "checkContact": false,
    "checkPost": false,
    "checkSticker": false,
    "detectUnsend": false,
    "keyCommand": "",
    "mimic": {
        "status": false,
        "target": {}
    },
    "myProfile": {
        "coverId": "",
        "displayName": "",
        "pictureStatus": "",
        "statusMessage": ""
    },
    "setKey": false
}